<?xml version="1.0" encoding="utf-8"?>
<!-- Generator: Adobe Illustrator 25.2.1, SVG Export Plug-In . SVG Version: 6.00 Build 0)  -->
<svg version="1.1" id="Слой_1" xmlns="http://www.w3.org/2000/svg" xmlns:xlink="http://www.w3.org/1999/xlink" x="0px" y="0px"
	 viewBox="0 0 37.8 31.8" style="enable-background:new 0 0 37.8 31.8;" xml:space="preserve">
<path d="M5.3,22.8c-0.1,0.8,0,1.4-0.3,1.7c-0.5,0.4-0.9,0.8-0.8,1.2c0.1,0.4,0.8,2.1,0.8,2.6c0,0.6,0.1,1,0.1,1.3
	c0,0.4-0.1,0.7,0.3,1c0.4,0.3,0.9,0.4,1,0.7c0.1,0.3,0.4,0.4,0.9,0.5c0.5,0.1,1.3-0.3,1.5-0.1c0.3,0.1,0.5-0.4,0.1-0.7
	c-0.4-0.4-0.7-0.6-1.1-0.6c-0.4,0-0.8,0.1-0.9-0.2c-0.1-0.3-0.6-2.3-0.5-2.8c0.2-0.5,0.4-2.2,1-2.9c0.6-0.7,2.1-2.7,2.2-3.6
	c0.1-0.9,0.5-1.3,0.7-1.5c0.2-0.2,1.1-1.6,1.2-2.3c0-0.1,0.1-0.3,0.1-0.4c0,0,1.7-0.6,2.5-0.4c0.8,0.2,1.6,0.7,3.4,1.2
	c1.6,0.4,3.6,2.2,6.5,1.9c0,0,0,1.5-0.2,2.1c-0.2,0.6-0.2,1.1-0.2,1.5c0,0.4,0.2,2.6-0.2,3.6c-0.4,1-0.3,1.2-0.2,1.5
	c0.1,0.4,0.3,0.7,0.3,1.1c0,0.4,0.3,0.9,0.6,1.1c0.3,0.2,0.8,0,1.2,0.2c0,0,0.5,0.3,0.9,0.2c-0.1,0.3,0.2,0.7,0.7,1
	c0.5,0.3,0.9,0.2,1.5,0.2c0.6,0,1-0.2,0.9-0.6c-0.2-0.4-0.9-1-1.2-1.1c-0.4-0.1-1-0.4-1.1-0.8c0-0.4-0.1-2.4,0.3-3.8
	c0.4-1.4,0.6-1.6,0.6-2.2c0-0.6,0.3-2,0.5-2.3c0.2-0.4,0.5-2.8,0.5-3.5c1.7-1.3,1.4-3.3,1.3-3.7c-0.1-0.4,0.2-0.9,0.4-1.4
	c0.2-0.5,0.2-1.3,0.2-1.7c0.1-0.4,0.1-1,0.6-1.6c0.5-0.7,0.7-2.6,1-3c0.3-0.4,0.9-0.6,1.2-0.5c0.4,0.1,2.9,0.1,2.9,0.1
	c0.6-0.1,1-0.6,1.1-0.8c0.1-0.2,0.3-0.5,0.6-0.7L37.5,3c0,0-1.9-0.8-2.2-0.9c-0.4-0.1-1-1-1.2-1.2c-0.3-0.2-0.7-0.7-1.2-0.8
	C32.5,0,30-0.3,28.8,1.3c-1.2,1.6-1.4,1.9-1.6,2.3c-0.2,0.4-1,2.3-1.3,2.6c-0.4,0.3-1.1,1.5-1.5,1.5c-0.4,0.1-0.7,0-1.1,0.3
	C23,8.2,22,8.6,21.5,8.6c-0.6-0.1-4,0-4.8,0.1c-0.8,0-4.7,0-5.6,0.2c-0.9,0.1-2.3,0.1-2.8,0.4C7.9,9.3,7.6,9.3,7.1,9.2
	C6.5,9.1,3.8,8.7,2.9,8.4c-1-0.4-2-0.7-2.2-0.9c-0.2-0.3-1-0.5-0.5,0.3c0.2,0.4,1.6,1.5,2.1,1.7c0.5,0.2,1.8,1.2,2.7,1.1
	c0.9,0,0.6,0.3,0.5,0.5c-0.1,0.3-0.8,0.6-1,1.8c-0.2,1.2-0.6,4.2-0.4,5C4.4,18.6,4,19.5,4,20c-0.1,0.6-0.2,0.5-0.3,1
	c-0.1,0.6-0.2,0.8-0.6,1.3c-0.4,0.5-1.5,1.4-1.5,1.7c0,0.4,0.2,1.7,0,2.3c-0.2,0.6-0.1,0.7-0.4,1c-0.3,0.3-0.5,0.4-0.4,0.7
	c0.2,0.3,0.4,0.6,0.3,1c0,0.4-0.4,0.6,0.4,1.2c0.8,0.6,0.9,0.4,1.1,0.4c0.2,0,0.6,0.1,0.9,0.1c0.3,0,0.7-0.5,0.7-0.5
	s-0.1-0.3-0.4-0.5c-0.3-0.2-1.2-0.5-1.3-0.7c-0.1-0.2-0.1-0.5-0.1-0.9c0-0.4,0.4-1.8,0.4-2.1c0-0.3,0.8-1,1-1.3
	C4,24.5,5.1,23.1,5.3,22.8C5.5,22.3,5.3,22.8,5.3,22.8z"/>
</svg>
